{
  "project_info": {
    "project_number": "443181663237",
    "firebase_url": "https://chatapp-6a209.firebaseio.com",
    "project_id": "chatapp-6a209",
    "storage_bucket": "chatapp-6a209.appspot.com"
  },
  "client": [
    {
      "client_info": {
        "mobilesdk_app_id": "1:443181663237:android:5df51fc850d7066b91886c",
        "android_client_info": {
          "package_name": "com.furymaxim.chatapp"
        }
      },
      "oauth_client": [
        {
          "client_id": "443181663237-e8fd7dqkq9crqaelim5d0h2rvoq1od1q.apps.googleusercontent.com",
          "client_type": 1,
          "android_info": {
            "package_name": "com.furymaxim.chatapp",
            "certificate_hash": "4cd2198842fe8072c4ce36b22a4811a1beb1bfa8"
          }
        },
        {
          "client_id": "443181663237-5hd8olvse2ql04ohtj0ufgq8vosci2nk.apps.googleusercontent.com",
          "client_type": 3
        }
      ],
      "api_key": [
        {
          "current_key": "AIzaSyB55uPWsMDHPmWdKzNzaFnKBz4BAJvrNj8"
        }
      ],
      "services": {
        "appinvite_service": {
          "other_platform_oauth_client": [
            {
              "client_id": "443181663237-5hd8olvse2ql04ohtj0ufgq8vosci2nk.apps.googleusercontent.com",
              "client_type": 3
            }
          ]
        }
      }
    }
  ],
  "configuration_version": "1"
}